^C:\WORKSPACE\LAME-3.99.5\OBJ\DEBUG\LIBMP3LAME-STATIC\BITSTREAM.SBR|C:\WORKSPACE\LAME-3.99.5\OBJ\DEBUG\LIBMP3LAME-STATIC\ENCODER.SBR|C:\WORKSPACE\LAME-3.99.5\OBJ\DEBUG\LIBMP3LAME-STATIC\FFT.SBR|C:\WORKSPACE\LAME-3.99.5\OBJ\DEBUG\LIBMP3LAME-STATIC\GAIN_ANALYSIS.SBR|C:\WORKSPACE\LAME-3.99.5\OBJ\DEBUG\LIBMP3LAME-STATIC\ID3TAG.SBR|C:\WORKSPACE\LAME-3.99.5\OBJ\DEBUG\LIBMP3LAME-STATIC\LAME.SBR|C:\WORKSPACE\LAME-3.99.5\OBJ\DEBUG\LIBMP3LAME-STATIC\MPGLIB_INTERFACE.SBR|C:\WORKSPACE\LAME-3.99.5\OBJ\DEBUG\LIBMP3LAME-STATIC\NEWMDCT.SBR|C:\WORKSPACE\LAME-3.99.5\OBJ\DEBUG\LIBMP3LAME-STATIC\PRESETS.SBR|C:\WORKSPACE\LAME-3.99.5\OBJ\DEBUG\LIBMP3LAME-STATIC\PSYMODEL.SBR|C:\WORKSPACE\LAME-3.99.5\OBJ\DEBUG\LIBMP3LAME-STATIC\QUANTIZE.SBR|C:\WORKSPACE\LAME-3.99.5\OBJ\DEBUG\LIBMP3LAME-STATIC\QUANTIZE_PVT.SBR|C:\WORKSPACE\LAME-3.99.5\OBJ\DEBUG\LIBMP3LAME-STATIC\RESERVOIR.SBR|C:\WORKSPACE\LAME-3.99.5\OBJ\DEBUG\LIBMP3LAME-STATIC\SET_GET.SBR|C:\WORKSPACE\LAME-3.99.5\OBJ\DEBUG\LIBMP3LAME-STATIC\TABLES.SBR|C:\WORKSPACE\LAME-3.99.5\OBJ\DEBUG\LIBMP3LAME-STATIC\TAKEHIRO.SBR|C:\WORKSPACE\LAME-3.99.5\OBJ\DEBUG\LIBMP3LAME-STATIC\UTIL.SBR|C:\WORKSPACE\LAME-3.99.5\OBJ\DEBUG\LIBMP3LAME-STATIC\VBRQUANTIZE.SBR|C:\WORKSPACE\LAME-3.99.5\OBJ\DEBUG\LIBMP3LAME-STATIC\VBRTAG.SBR|C:\WORKSPACE\LAME-3.99.5\OBJ\DEBUG\LIBMP3LAME-STATIC\VERSION.SBR|C:\WORKSPACE\LAME-3.99.5\OBJ\DEBUG\LIBMP3LAME-STATIC\XMM_QUANTIZE_SUB.SBR
C:\WINDOWS\SYSTEM32\TZRES.DLL
C:\WORKSPACE\LAME-3.99.5\OBJ\DEBUG\LIBMP3LAME-STATIC\BITSTREAM.SBR
C:\WORKSPACE\LAME-3.99.5\OBJ\DEBUG\LIBMP3LAME-STATIC\ENCODER.SBR
C:\WORKSPACE\LAME-3.99.5\OBJ\DEBUG\LIBMP3LAME-STATIC\FFT.SBR
C:\WORKSPACE\LAME-3.99.5\OBJ\DEBUG\LIBMP3LAME-STATIC\GAIN_ANALYSIS.SBR
C:\WORKSPACE\LAME-3.99.5\OBJ\DEBUG\LIBMP3LAME-STATIC\ID3TAG.SBR
C:\WORKSPACE\LAME-3.99.5\OBJ\DEBUG\LIBMP3LAME-STATIC\LAME.SBR
C:\WORKSPACE\LAME-3.99.5\OBJ\DEBUG\LIBMP3LAME-STATIC\MPGLIB_INTERFACE.SBR
C:\WORKSPACE\LAME-3.99.5\OBJ\DEBUG\LIBMP3LAME-STATIC\NEWMDCT.SBR
C:\WORKSPACE\LAME-3.99.5\OBJ\DEBUG\LIBMP3LAME-STATIC\PRESETS.SBR
C:\WORKSPACE\LAME-3.99.5\OBJ\DEBUG\LIBMP3LAME-STATIC\PSYMODEL.SBR
C:\WORKSPACE\LAME-3.99.5\OBJ\DEBUG\LIBMP3LAME-STATIC\QUANTIZE.SBR
C:\WORKSPACE\LAME-3.99.5\OBJ\DEBUG\LIBMP3LAME-STATIC\QUANTIZE_PVT.SBR
C:\WORKSPACE\LAME-3.99.5\OBJ\DEBUG\LIBMP3LAME-STATIC\RESERVOIR.SBR
C:\WORKSPACE\LAME-3.99.5\OBJ\DEBUG\LIBMP3LAME-STATIC\SET_GET.SBR
C:\WORKSPACE\LAME-3.99.5\OBJ\DEBUG\LIBMP3LAME-STATIC\TABLES.SBR
C:\WORKSPACE\LAME-3.99.5\OBJ\DEBUG\LIBMP3LAME-STATIC\TAKEHIRO.SBR
C:\WORKSPACE\LAME-3.99.5\OBJ\DEBUG\LIBMP3LAME-STATIC\UTIL.SBR
C:\WORKSPACE\LAME-3.99.5\OBJ\DEBUG\LIBMP3LAME-STATIC\VBRQUANTIZE.SBR
C:\WORKSPACE\LAME-3.99.5\OBJ\DEBUG\LIBMP3LAME-STATIC\VBRTAG.SBR
C:\WORKSPACE\LAME-3.99.5\OBJ\DEBUG\LIBMP3LAME-STATIC\VERSION.SBR
C:\WORKSPACE\LAME-3.99.5\OBJ\DEBUG\LIBMP3LAME-STATIC\XMM_QUANTIZE_SUB.SBR
