^C:\WORKSPACE\LAME-3.99.5\OBJ\DEBUG\LIBMP3LAME-STATIC\BITSTREAM.OBJ|C:\WORKSPACE\LAME-3.99.5\OBJ\DEBUG\LIBMP3LAME-STATIC\ENCODER.OBJ|C:\WORKSPACE\LAME-3.99.5\OBJ\DEBUG\LIBMP3LAME-STATIC\FFT.OBJ|C:\WORKSPACE\LAME-3.99.5\OBJ\DEBUG\LIBMP3LAME-STATIC\GAIN_ANALYSIS.OBJ|C:\WORKSPACE\LAME-3.99.5\OBJ\DEBUG\LIBMP3LAME-STATIC\ID3TAG.OBJ|C:\WORKSPACE\LAME-3.99.5\OBJ\DEBUG\LIBMP3LAME-STATIC\LAME.OBJ|C:\WORKSPACE\LAME-3.99.5\OBJ\DEBUG\LIBMP3LAME-STATIC\MPGLIB_INTERFACE.OBJ|C:\WORKSPACE\LAME-3.99.5\OBJ\DEBUG\LIBMP3LAME-STATIC\NEWMDCT.OBJ|C:\WORKSPACE\LAME-3.99.5\OBJ\DEBUG\LIBMP3LAME-STATIC\PRESETS.OBJ|C:\WORKSPACE\LAME-3.99.5\OBJ\DEBUG\LIBMP3LAME-STATIC\PSYMODEL.OBJ|C:\WORKSPACE\LAME-3.99.5\OBJ\DEBUG\LIBMP3LAME-STATIC\QUANTIZE.OBJ|C:\WORKSPACE\LAME-3.99.5\OBJ\DEBUG\LIBMP3LAME-STATIC\QUANTIZE_PVT.OBJ|C:\WORKSPACE\LAME-3.99.5\OBJ\DEBUG\LIBMP3LAME-STATIC\RESERVOIR.OBJ|C:\WORKSPACE\LAME-3.99.5\OBJ\DEBUG\LIBMP3LAME-STATIC\SET_GET.OBJ|C:\WORKSPACE\LAME-3.99.5\OBJ\DEBUG\LIBMP3LAME-STATIC\TABLES.OBJ|C:\WORKSPACE\LAME-3.99.5\OBJ\DEBUG\LIBMP3LAME-STATIC\TAKEHIRO.OBJ|C:\WORKSPACE\LAME-3.99.5\OBJ\DEBUG\LIBMP3LAME-STATIC\UTIL.OBJ|C:\WORKSPACE\LAME-3.99.5\OBJ\DEBUG\LIBMP3LAME-STATIC\VBRQUANTIZE.OBJ|C:\WORKSPACE\LAME-3.99.5\OBJ\DEBUG\LIBMP3LAME-STATIC\VBRTAG.OBJ|C:\WORKSPACE\LAME-3.99.5\OBJ\DEBUG\LIBMP3LAME-STATIC\VERSION.OBJ|C:\WORKSPACE\LAME-3.99.5\OBJ\DEBUG\LIBMP3LAME-STATIC\XMM_QUANTIZE_SUB.OBJ
/OUT:"C:\workspace\lame-3.99.5\vc_solution\..\output\Debug\libmp3lame-static.lib" /NOLOGO "C:\workspace\lame-3.99.5\vc_solution\..\obj\Debug\libmp3lame-static\bitstream.obj"
"C:\workspace\lame-3.99.5\vc_solution\..\obj\Debug\libmp3lame-static\encoder.obj"
"C:\workspace\lame-3.99.5\vc_solution\..\obj\Debug\libmp3lame-static\fft.obj"
"C:\workspace\lame-3.99.5\vc_solution\..\obj\Debug\libmp3lame-static\gain_analysis.obj"
"C:\workspace\lame-3.99.5\vc_solution\..\obj\Debug\libmp3lame-static\id3tag.obj"
"C:\workspace\lame-3.99.5\vc_solution\..\obj\Debug\libmp3lame-static\lame.obj"
"C:\workspace\lame-3.99.5\vc_solution\..\obj\Debug\libmp3lame-static\mpglib_interface.obj"
"C:\workspace\lame-3.99.5\vc_solution\..\obj\Debug\libmp3lame-static\newmdct.obj"
"C:\workspace\lame-3.99.5\vc_solution\..\obj\Debug\libmp3lame-static\presets.obj"
"C:\workspace\lame-3.99.5\vc_solution\..\obj\Debug\libmp3lame-static\psymodel.obj"
"C:\workspace\lame-3.99.5\vc_solution\..\obj\Debug\libmp3lame-static\quantize.obj"
"C:\workspace\lame-3.99.5\vc_solution\..\obj\Debug\libmp3lame-static\quantize_pvt.obj"
"C:\workspace\lame-3.99.5\vc_solution\..\obj\Debug\libmp3lame-static\reservoir.obj"
"C:\workspace\lame-3.99.5\vc_solution\..\obj\Debug\libmp3lame-static\set_get.obj"
"C:\workspace\lame-3.99.5\vc_solution\..\obj\Debug\libmp3lame-static\tables.obj"
"C:\workspace\lame-3.99.5\vc_solution\..\obj\Debug\libmp3lame-static\takehiro.obj"
"C:\workspace\lame-3.99.5\vc_solution\..\obj\Debug\libmp3lame-static\util.obj"
"C:\workspace\lame-3.99.5\vc_solution\..\obj\Debug\libmp3lame-static\vbrquantize.obj"
"C:\workspace\lame-3.99.5\vc_solution\..\obj\Debug\libmp3lame-static\VbrTag.obj"
"C:\workspace\lame-3.99.5\vc_solution\..\obj\Debug\libmp3lame-static\version.obj"
"C:\workspace\lame-3.99.5\vc_solution\..\obj\Debug\libmp3lame-static\xmm_quantize_sub.obj"
