^C:\WORKSPACE\LAME-3.99.5\OBJ\DEBUG\LIBMP3LAME\LIBMP3LAME.DLL.INTERMEDIATE.MANIFEST
C:\WINDOWS\MICROSOFT.NET\FRAMEWORK\V2.0.50727\MSCORWKS.DLL
C:\WINDOWS\MICROSOFT.NET\FRAMEWORK\V4.0.30319\CLR.DLL
C:\PROGRAM FILES (X86)\MICROSOFT SDKS\WINDOWS\V7.0A\BIN\MT.EXE.CONFIG
C:\WORKSPACE\LAME-3.99.5\OUTPUT\DEBUG\LIBMP3LAME.DLL
