^C:\WORKSPACE\LAME-3.99.5\OBJ\DEBUG\APP LAME\BRHIST.SBR|C:\WORKSPACE\LAME-3.99.5\OBJ\DEBUG\APP LAME\CONSOLE.SBR|C:\WORKSPACE\LAME-3.99.5\OBJ\DEBUG\APP LAME\GET_AUDIO.SBR|C:\WORKSPACE\LAME-3.99.5\OBJ\DEBUG\APP LAME\LAMETIME.SBR|C:\WORKSPACE\LAME-3.99.5\OBJ\DEBUG\APP LAME\LAME_MAIN.SBR|C:\WORKSPACE\LAME-3.99.5\OBJ\DEBUG\APP LAME\MAIN.SBR|C:\WORKSPACE\LAME-3.99.5\OBJ\DEBUG\APP LAME\PARSE.SBR|C:\WORKSPACE\LAME-3.99.5\OBJ\DEBUG\APP LAME\TIMESTATUS.SBR
C:\WINDOWS\SYSTEM32\TZRES.DLL
C:\WORKSPACE\LAME-3.99.5\OBJ\DEBUG\APP LAME\BRHIST.SBR
C:\WORKSPACE\LAME-3.99.5\OBJ\DEBUG\APP LAME\CONSOLE.SBR
C:\WORKSPACE\LAME-3.99.5\OBJ\DEBUG\APP LAME\GET_AUDIO.SBR
C:\WORKSPACE\LAME-3.99.5\OBJ\DEBUG\APP LAME\LAME_MAIN.SBR
C:\WORKSPACE\LAME-3.99.5\OBJ\DEBUG\APP LAME\LAMETIME.SBR
C:\WORKSPACE\LAME-3.99.5\OBJ\DEBUG\APP LAME\MAIN.SBR
C:\WORKSPACE\LAME-3.99.5\OBJ\DEBUG\APP LAME\PARSE.SBR
C:\WORKSPACE\LAME-3.99.5\OBJ\DEBUG\APP LAME\TIMESTATUS.SBR
