^C:\WORKSPACE\LAME-3.99.5\FRONTEND\BRHIST.C|C:\WORKSPACE\LAME-3.99.5\FRONTEND\CONSOLE.C|C:\WORKSPACE\LAME-3.99.5\FRONTEND\GET_AUDIO.C|C:\WORKSPACE\LAME-3.99.5\FRONTEND\LAMETIME.C|C:\WORKSPACE\LAME-3.99.5\FRONTEND\LAME_MAIN.C|C:\WORKSPACE\LAME-3.99.5\FRONTEND\MAIN.C|C:\WORKSPACE\LAME-3.99.5\FRONTEND\PARSE.C|C:\WORKSPACE\LAME-3.99.5\FRONTEND\TIMESTATUS.C
C:\WORKSPACE\LAME-3.99.5\OBJ\DEBUG\APP LAME\BRHIST.SBR
C:\WORKSPACE\LAME-3.99.5\OBJ\DEBUG\APP LAME\CONSOLE.SBR
C:\WORKSPACE\LAME-3.99.5\OBJ\DEBUG\APP LAME\GET_AUDIO.SBR
C:\WORKSPACE\LAME-3.99.5\OBJ\DEBUG\APP LAME\LAME_MAIN.SBR
C:\WORKSPACE\LAME-3.99.5\OBJ\DEBUG\APP LAME\LAMETIME.SBR
C:\WORKSPACE\LAME-3.99.5\OBJ\DEBUG\APP LAME\MAIN.SBR
C:\WORKSPACE\LAME-3.99.5\OBJ\DEBUG\APP LAME\PARSE.SBR
C:\WORKSPACE\LAME-3.99.5\OBJ\DEBUG\APP LAME\TIMESTATUS.SBR
C:\WORKSPACE\LAME-3.99.5\OBJ\DEBUG\APP LAME\TIMESTATUS.OBJ
C:\WORKSPACE\LAME-3.99.5\OBJ\DEBUG\APP LAME\PARSE.OBJ
C:\WORKSPACE\LAME-3.99.5\OBJ\DEBUG\APP LAME\MAIN.OBJ
C:\WORKSPACE\LAME-3.99.5\OBJ\DEBUG\APP LAME\LAMETIME.OBJ
C:\WORKSPACE\LAME-3.99.5\OBJ\DEBUG\APP LAME\LAME_MAIN.OBJ
C:\WORKSPACE\LAME-3.99.5\OBJ\DEBUG\APP LAME\GET_AUDIO.OBJ
C:\WORKSPACE\LAME-3.99.5\OBJ\DEBUG\APP LAME\CONSOLE.OBJ
C:\WORKSPACE\LAME-3.99.5\OBJ\DEBUG\APP LAME\BRHIST.OBJ
^C:\WORKSPACE\LAME-3.99.5\FRONTEND\BRHIST.C
C:\WORKSPACE\LAME-3.99.5\OBJ\DEBUG\APP LAME\VC100.PDB
^C:\WORKSPACE\LAME-3.99.5\FRONTEND\CONSOLE.C
C:\WORKSPACE\LAME-3.99.5\OBJ\DEBUG\APP LAME\VC100.PDB
^C:\WORKSPACE\LAME-3.99.5\FRONTEND\GET_AUDIO.C
C:\WORKSPACE\LAME-3.99.5\OBJ\DEBUG\APP LAME\VC100.PDB
^C:\WORKSPACE\LAME-3.99.5\FRONTEND\LAME_MAIN.C
C:\WORKSPACE\LAME-3.99.5\OBJ\DEBUG\APP LAME\VC100.PDB
^C:\WORKSPACE\LAME-3.99.5\FRONTEND\LAMETIME.C
C:\WORKSPACE\LAME-3.99.5\OBJ\DEBUG\APP LAME\VC100.PDB
^C:\WORKSPACE\LAME-3.99.5\FRONTEND\MAIN.C
C:\WORKSPACE\LAME-3.99.5\OBJ\DEBUG\APP LAME\VC100.PDB
^C:\WORKSPACE\LAME-3.99.5\FRONTEND\PARSE.C
C:\WORKSPACE\LAME-3.99.5\OBJ\DEBUG\APP LAME\VC100.PDB
^C:\WORKSPACE\LAME-3.99.5\FRONTEND\TIMESTATUS.C
C:\WORKSPACE\LAME-3.99.5\OBJ\DEBUG\APP LAME\VC100.PDB
