^C:\WORKSPACE\LAME-3.99.5\OBJ\DEBUG\APP LAME\BRHIST.OBJ|C:\WORKSPACE\LAME-3.99.5\OBJ\DEBUG\APP LAME\CONSOLE.OBJ|C:\WORKSPACE\LAME-3.99.5\OBJ\DEBUG\APP LAME\GET_AUDIO.OBJ|C:\WORKSPACE\LAME-3.99.5\OBJ\DEBUG\APP LAME\LAME.RES|C:\WORKSPACE\LAME-3.99.5\OBJ\DEBUG\APP LAME\LAMETIME.OBJ|C:\WORKSPACE\LAME-3.99.5\OBJ\DEBUG\APP LAME\LAME_MAIN.OBJ|C:\WORKSPACE\LAME-3.99.5\OBJ\DEBUG\APP LAME\MAIN.OBJ|C:\WORKSPACE\LAME-3.99.5\OBJ\DEBUG\APP LAME\PARSE.OBJ|C:\WORKSPACE\LAME-3.99.5\OBJ\DEBUG\APP LAME\TIMESTATUS.OBJ|C:\WORKSPACE\LAME-3.99.5\OUTPUT\DEBUG\LIBMP3LAME-STATIC.LIB|C:\WORKSPACE\LAME-3.99.5\OUTPUT\DEBUG\LIBMPGHIP-STATIC.LIB
C:\PROGRAM FILES (X86)\MICROSOFT SDKS\WINDOWS\V7.0A\LIB\KERNEL32.LIB
C:\PROGRAM FILES (X86)\MICROSOFT SDKS\WINDOWS\V7.0A\LIB\USER32.LIB
C:\PROGRAM FILES (X86)\MICROSOFT SDKS\WINDOWS\V7.0A\LIB\GDI32.LIB
C:\PROGRAM FILES (X86)\MICROSOFT SDKS\WINDOWS\V7.0A\LIB\WINSPOOL.LIB
C:\PROGRAM FILES (X86)\MICROSOFT SDKS\WINDOWS\V7.0A\LIB\COMDLG32.LIB
C:\PROGRAM FILES (X86)\MICROSOFT SDKS\WINDOWS\V7.0A\LIB\ADVAPI32.LIB
C:\PROGRAM FILES (X86)\MICROSOFT SDKS\WINDOWS\V7.0A\LIB\SHELL32.LIB
C:\PROGRAM FILES (X86)\MICROSOFT SDKS\WINDOWS\V7.0A\LIB\OLE32.LIB
C:\PROGRAM FILES (X86)\MICROSOFT SDKS\WINDOWS\V7.0A\LIB\OLEAUT32.LIB
C:\PROGRAM FILES (X86)\MICROSOFT SDKS\WINDOWS\V7.0A\LIB\UUID.LIB
C:\PROGRAM FILES (X86)\MICROSOFT SDKS\WINDOWS\V7.0A\LIB\ODBC32.LIB
C:\PROGRAM FILES (X86)\MICROSOFT SDKS\WINDOWS\V7.0A\LIB\ODBCCP32.LIB
C:\WORKSPACE\LAME-3.99.5\OBJ\DEBUG\APP LAME\LAME.RES
C:\WORKSPACE\LAME-3.99.5\OBJ\DEBUG\APP LAME\BRHIST.OBJ
C:\WORKSPACE\LAME-3.99.5\OBJ\DEBUG\APP LAME\CONSOLE.OBJ
C:\WORKSPACE\LAME-3.99.5\OBJ\DEBUG\APP LAME\GET_AUDIO.OBJ
C:\WORKSPACE\LAME-3.99.5\OBJ\DEBUG\APP LAME\LAME_MAIN.OBJ
C:\WORKSPACE\LAME-3.99.5\OBJ\DEBUG\APP LAME\LAMETIME.OBJ
C:\WORKSPACE\LAME-3.99.5\OBJ\DEBUG\APP LAME\MAIN.OBJ
C:\WORKSPACE\LAME-3.99.5\OBJ\DEBUG\APP LAME\PARSE.OBJ
C:\WORKSPACE\LAME-3.99.5\OBJ\DEBUG\APP LAME\TIMESTATUS.OBJ
C:\WORKSPACE\LAME-3.99.5\OUTPUT\DEBUG\LIBMPGHIP-STATIC.LIB
C:\WORKSPACE\LAME-3.99.5\OUTPUT\DEBUG\LIBMP3LAME-STATIC.LIB
C:\WINDOWS\GLOBALIZATION\SORTING\SORTDEFAULT.NLS
C:\PROGRAM FILES (X86)\MICROSOFT VISUAL STUDIO 10.0\VC\LIB\LIBCMTD.LIB
C:\PROGRAM FILES (X86)\MICROSOFT VISUAL STUDIO 10.0\VC\LIB\OLDNAMES.LIB
C:\PROGRAM FILES (X86)\MICROSOFT VISUAL STUDIO 10.0\VC\BIN\CVTRES.EXE
C:\WINDOWS\SYSTEM32\TZRES.DLL
C:\WINDOWS\SYSTEM32\RSAENH.DLL
