^C:\WORKSPACE\LAME-3.99.5\OBJ\DEBUG\APP MP3RTP\BRHIST.SBR|C:\WORKSPACE\LAME-3.99.5\OBJ\DEBUG\APP MP3RTP\CONSOLE.SBR|C:\WORKSPACE\LAME-3.99.5\OBJ\DEBUG\APP MP3RTP\GET_AUDIO.SBR|C:\WORKSPACE\LAME-3.99.5\OBJ\DEBUG\APP MP3RTP\LAMETIME.SBR|C:\WORKSPACE\LAME-3.99.5\OBJ\DEBUG\APP MP3RTP\MAIN.SBR|C:\WORKSPACE\LAME-3.99.5\OBJ\DEBUG\APP MP3RTP\MP3RTP.SBR|C:\WORKSPACE\LAME-3.99.5\OBJ\DEBUG\APP MP3RTP\PARSE.SBR|C:\WORKSPACE\LAME-3.99.5\OBJ\DEBUG\APP MP3RTP\RTP.SBR|C:\WORKSPACE\LAME-3.99.5\OBJ\DEBUG\APP MP3RTP\TIMESTATUS.SBR
C:\WINDOWS\SYSTEM32\TZRES.DLL
C:\WORKSPACE\LAME-3.99.5\OBJ\DEBUG\APP MP3RTP\BRHIST.SBR
C:\WORKSPACE\LAME-3.99.5\OBJ\DEBUG\APP MP3RTP\CONSOLE.SBR
C:\WORKSPACE\LAME-3.99.5\OBJ\DEBUG\APP MP3RTP\GET_AUDIO.SBR
C:\WORKSPACE\LAME-3.99.5\OBJ\DEBUG\APP MP3RTP\LAMETIME.SBR
C:\WORKSPACE\LAME-3.99.5\OBJ\DEBUG\APP MP3RTP\MAIN.SBR
C:\WORKSPACE\LAME-3.99.5\OBJ\DEBUG\APP MP3RTP\MP3RTP.SBR
C:\WORKSPACE\LAME-3.99.5\OBJ\DEBUG\APP MP3RTP\PARSE.SBR
C:\WORKSPACE\LAME-3.99.5\OBJ\DEBUG\APP MP3RTP\RTP.SBR
C:\WORKSPACE\LAME-3.99.5\OBJ\DEBUG\APP MP3RTP\TIMESTATUS.SBR
