^C:\WORKSPACE\LAME-3.99.5\FRONTEND\BRHIST.C
/c /I../ /I../mpglib /I../libmp3lame /I../include /Zi /nologo /W4 /WX- /Od /Oy- /D _DEBUG /D WIN32 /D _WIN32 /D _CONSOLE /D _WINDOWS /D HAVE_MPGLIB /D HAVE_CONFIG_H /D TAKEHIRO_IEEE754_HACK /D _CRT_SECURE_NO_WARNINGS /D _CRT_SECURE_NO_DEPRECATED /GF /Gm- /EHsc /MTd /GS /Gy /fp:precise /Zc:wchar_t /Zc:forScope /Fo"C:\workspace\lame-3.99.5\vc_solution\..\obj\Debug\app mp3rtp\\" /Fd"C:\workspace\lame-3.99.5\vc_solution\..\obj\Debug\app mp3rtp\vc100.pdb" /FR"C:\workspace\lame-3.99.5\vc_solution\..\obj\Debug\app mp3rtp\\" /Gd /TC /wd4995 /wd4996 /analyze- /errorReport:prompt C:\WORKSPACE\LAME-3.99.5\FRONTEND\BRHIST.C
^C:\WORKSPACE\LAME-3.99.5\FRONTEND\CONSOLE.C
/c /I../ /I../mpglib /I../libmp3lame /I../include /Zi /nologo /W4 /WX- /Od /Oy- /D _DEBUG /D WIN32 /D _WIN32 /D _CONSOLE /D _WINDOWS /D HAVE_MPGLIB /D HAVE_CONFIG_H /D TAKEHIRO_IEEE754_HACK /D _CRT_SECURE_NO_WARNINGS /D _CRT_SECURE_NO_DEPRECATED /GF /Gm- /EHsc /MTd /GS /Gy /fp:precise /Zc:wchar_t /Zc:forScope /Fo"C:\workspace\lame-3.99.5\vc_solution\..\obj\Debug\app mp3rtp\\" /Fd"C:\workspace\lame-3.99.5\vc_solution\..\obj\Debug\app mp3rtp\vc100.pdb" /FR"C:\workspace\lame-3.99.5\vc_solution\..\obj\Debug\app mp3rtp\\" /Gd /TC /wd4995 /wd4996 /analyze- /errorReport:prompt C:\WORKSPACE\LAME-3.99.5\FRONTEND\CONSOLE.C
^C:\WORKSPACE\LAME-3.99.5\FRONTEND\GET_AUDIO.C
/c /I../ /I../mpglib /I../libmp3lame /I../include /Zi /nologo /W4 /WX- /Od /Oy- /D _DEBUG /D WIN32 /D _WIN32 /D _CONSOLE /D _WINDOWS /D HAVE_MPGLIB /D HAVE_CONFIG_H /D TAKEHIRO_IEEE754_HACK /D _CRT_SECURE_NO_WARNINGS /D _CRT_SECURE_NO_DEPRECATED /GF /Gm- /EHsc /MTd /GS /Gy /fp:precise /Zc:wchar_t /Zc:forScope /Fo"C:\workspace\lame-3.99.5\vc_solution\..\obj\Debug\app mp3rtp\\" /Fd"C:\workspace\lame-3.99.5\vc_solution\..\obj\Debug\app mp3rtp\vc100.pdb" /FR"C:\workspace\lame-3.99.5\vc_solution\..\obj\Debug\app mp3rtp\\" /Gd /TC /wd4995 /wd4996 /analyze- /errorReport:prompt C:\WORKSPACE\LAME-3.99.5\FRONTEND\GET_AUDIO.C
^C:\WORKSPACE\LAME-3.99.5\FRONTEND\LAMETIME.C
/c /I../ /I../mpglib /I../libmp3lame /I../include /Zi /nologo /W4 /WX- /Od /Oy- /D _DEBUG /D WIN32 /D _WIN32 /D _CONSOLE /D _WINDOWS /D HAVE_MPGLIB /D HAVE_CONFIG_H /D TAKEHIRO_IEEE754_HACK /D _CRT_SECURE_NO_WARNINGS /D _CRT_SECURE_NO_DEPRECATED /GF /Gm- /EHsc /MTd /GS /Gy /fp:precise /Zc:wchar_t /Zc:forScope /Fo"C:\workspace\lame-3.99.5\vc_solution\..\obj\Debug\app mp3rtp\\" /Fd"C:\workspace\lame-3.99.5\vc_solution\..\obj\Debug\app mp3rtp\vc100.pdb" /FR"C:\workspace\lame-3.99.5\vc_solution\..\obj\Debug\app mp3rtp\\" /Gd /TC /wd4995 /wd4996 /analyze- /errorReport:prompt C:\WORKSPACE\LAME-3.99.5\FRONTEND\LAMETIME.C
^C:\WORKSPACE\LAME-3.99.5\FRONTEND\MAIN.C
/c /I../ /I../mpglib /I../libmp3lame /I../include /Zi /nologo /W4 /WX- /Od /Oy- /D _DEBUG /D WIN32 /D _WIN32 /D _CONSOLE /D _WINDOWS /D HAVE_MPGLIB /D HAVE_CONFIG_H /D TAKEHIRO_IEEE754_HACK /D _CRT_SECURE_NO_WARNINGS /D _CRT_SECURE_NO_DEPRECATED /GF /Gm- /EHsc /MTd /GS /Gy /fp:precise /Zc:wchar_t /Zc:forScope /Fo"C:\workspace\lame-3.99.5\vc_solution\..\obj\Debug\app mp3rtp\\" /Fd"C:\workspace\lame-3.99.5\vc_solution\..\obj\Debug\app mp3rtp\vc100.pdb" /FR"C:\workspace\lame-3.99.5\vc_solution\..\obj\Debug\app mp3rtp\\" /Gd /TC /wd4995 /wd4996 /analyze- /errorReport:prompt C:\WORKSPACE\LAME-3.99.5\FRONTEND\MAIN.C
^C:\WORKSPACE\LAME-3.99.5\FRONTEND\MP3RTP.C
/c /I../ /I../mpglib /I../libmp3lame /I../include /Zi /nologo /W4 /WX- /Od /Oy- /D _DEBUG /D WIN32 /D _WIN32 /D _CONSOLE /D _WINDOWS /D HAVE_MPGLIB /D HAVE_CONFIG_H /D TAKEHIRO_IEEE754_HACK /D _CRT_SECURE_NO_WARNINGS /D _CRT_SECURE_NO_DEPRECATED /GF /Gm- /EHsc /MTd /GS /Gy /fp:precise /Zc:wchar_t /Zc:forScope /Fo"C:\workspace\lame-3.99.5\vc_solution\..\obj\Debug\app mp3rtp\\" /Fd"C:\workspace\lame-3.99.5\vc_solution\..\obj\Debug\app mp3rtp\vc100.pdb" /FR"C:\workspace\lame-3.99.5\vc_solution\..\obj\Debug\app mp3rtp\\" /Gd /TC /wd4995 /wd4996 /analyze- /errorReport:prompt C:\WORKSPACE\LAME-3.99.5\FRONTEND\MP3RTP.C
^C:\WORKSPACE\LAME-3.99.5\FRONTEND\PARSE.C
/c /I../ /I../mpglib /I../libmp3lame /I../include /Zi /nologo /W4 /WX- /Od /Oy- /D _DEBUG /D WIN32 /D _WIN32 /D _CONSOLE /D _WINDOWS /D HAVE_MPGLIB /D HAVE_CONFIG_H /D TAKEHIRO_IEEE754_HACK /D _CRT_SECURE_NO_WARNINGS /D _CRT_SECURE_NO_DEPRECATED /GF /Gm- /EHsc /MTd /GS /Gy /fp:precise /Zc:wchar_t /Zc:forScope /Fo"C:\workspace\lame-3.99.5\vc_solution\..\obj\Debug\app mp3rtp\\" /Fd"C:\workspace\lame-3.99.5\vc_solution\..\obj\Debug\app mp3rtp\vc100.pdb" /FR"C:\workspace\lame-3.99.5\vc_solution\..\obj\Debug\app mp3rtp\\" /Gd /TC /wd4995 /wd4996 /analyze- /errorReport:prompt C:\WORKSPACE\LAME-3.99.5\FRONTEND\PARSE.C
^C:\WORKSPACE\LAME-3.99.5\FRONTEND\RTP.C
/c /I../ /I../mpglib /I../libmp3lame /I../include /Zi /nologo /W4 /WX- /Od /Oy- /D _DEBUG /D WIN32 /D _WIN32 /D _CONSOLE /D _WINDOWS /D HAVE_MPGLIB /D HAVE_CONFIG_H /D TAKEHIRO_IEEE754_HACK /D _CRT_SECURE_NO_WARNINGS /D _CRT_SECURE_NO_DEPRECATED /GF /Gm- /EHsc /MTd /GS /Gy /fp:precise /Zc:wchar_t /Zc:forScope /Fo"C:\workspace\lame-3.99.5\vc_solution\..\obj\Debug\app mp3rtp\\" /Fd"C:\workspace\lame-3.99.5\vc_solution\..\obj\Debug\app mp3rtp\vc100.pdb" /FR"C:\workspace\lame-3.99.5\vc_solution\..\obj\Debug\app mp3rtp\\" /Gd /TC /wd4995 /wd4996 /analyze- /errorReport:prompt C:\WORKSPACE\LAME-3.99.5\FRONTEND\RTP.C
^C:\WORKSPACE\LAME-3.99.5\FRONTEND\TIMESTATUS.C
/c /I../ /I../mpglib /I../libmp3lame /I../include /Zi /nologo /W4 /WX- /Od /Oy- /D _DEBUG /D WIN32 /D _WIN32 /D _CONSOLE /D _WINDOWS /D HAVE_MPGLIB /D HAVE_CONFIG_H /D TAKEHIRO_IEEE754_HACK /D _CRT_SECURE_NO_WARNINGS /D _CRT_SECURE_NO_DEPRECATED /GF /Gm- /EHsc /MTd /GS /Gy /fp:precise /Zc:wchar_t /Zc:forScope /Fo"C:\workspace\lame-3.99.5\vc_solution\..\obj\Debug\app mp3rtp\\" /Fd"C:\workspace\lame-3.99.5\vc_solution\..\obj\Debug\app mp3rtp\vc100.pdb" /FR"C:\workspace\lame-3.99.5\vc_solution\..\obj\Debug\app mp3rtp\\" /Gd /TC /wd4995 /wd4996 /analyze- /errorReport:prompt C:\WORKSPACE\LAME-3.99.5\FRONTEND\TIMESTATUS.C
