^C:\WORKSPACE\LAME-3.99.5\OBJ\DEBUG\LIBMPGHIP-STATIC\COMMON.OBJ|C:\WORKSPACE\LAME-3.99.5\OBJ\DEBUG\LIBMPGHIP-STATIC\DCT64_I386.OBJ|C:\WORKSPACE\LAME-3.99.5\OBJ\DEBUG\LIBMPGHIP-STATIC\DECODE_I386.OBJ|C:\WORKSPACE\LAME-3.99.5\OBJ\DEBUG\LIBMPGHIP-STATIC\INTERFACE.OBJ|C:\WORKSPACE\LAME-3.99.5\OBJ\DEBUG\LIBMPGHIP-STATIC\LAYER1.OBJ|C:\WORKSPACE\LAME-3.99.5\OBJ\DEBUG\LIBMPGHIP-STATIC\LAYER2.OBJ|C:\WORKSPACE\LAME-3.99.5\OBJ\DEBUG\LIBMPGHIP-STATIC\LAYER3.OBJ|C:\WORKSPACE\LAME-3.99.5\OBJ\DEBUG\LIBMPGHIP-STATIC\TABINIT.OBJ
/OUT:"C:\workspace\lame-3.99.5\vc_solution\..\output\Debug\libmpghip-static.lib" /NOLOGO "C:\workspace\lame-3.99.5\vc_solution\..\obj\Debug\libmpghip-static\common.obj"
"C:\workspace\lame-3.99.5\vc_solution\..\obj\Debug\libmpghip-static\dct64_i386.obj"
"C:\workspace\lame-3.99.5\vc_solution\..\obj\Debug\libmpghip-static\decode_i386.obj"
"C:\workspace\lame-3.99.5\vc_solution\..\obj\Debug\libmpghip-static\interface.obj"
"C:\workspace\lame-3.99.5\vc_solution\..\obj\Debug\libmpghip-static\layer1.obj"
"C:\workspace\lame-3.99.5\vc_solution\..\obj\Debug\libmpghip-static\layer2.obj"
"C:\workspace\lame-3.99.5\vc_solution\..\obj\Debug\libmpghip-static\layer3.obj"
"C:\workspace\lame-3.99.5\vc_solution\..\obj\Debug\libmpghip-static\tabinit.obj"
